64050213 วรกานต์ แสนสุขสกุลชล
65050452 นฤภร สุดวรรค
63050034 ธนรัฐ ศรีหาผล
65050749 ระพีพัฒน์ เสาเปรีย
65050566 ปุณยวีร์ กิตติกุลยุทธ์
65050565 ปุณยวัจน์ แสงรัตนายนต์
65050934 สุนิสา ยอดสมุทร
65050305 ณัฐรินีย์ รัตนวรรณ
65050916 สุกันยาภรณ์  ฤดีชุติพร
63050033 ธนภัทร มุนีกุล
64050191 ภูมิรพี ศรีฟ้า
64050188 ภานุพงศ์ เบ้าแก้ว
64050218 วรายุทธ พรมพาดี
65051027 อินฑัช แก้วเกตุ
65050075 กิตติพิชญ์ มุกดาสนิท
64050152 ปิยะวัชร์ หมื่นศรี
65050870 ศิรสิทธิ์ เรืองศิลปวิไล
64050150 ปัณณวัชญ์ จรูญกีรติโรจน์
64050574 กานทณ์รพี โชติรัตน์
65050002 กชกร มะโนภัย
65050244 ณภัสกร เกษมนุกิจกุล
65050912 สิรินทร์พร ฉ่ำตุ๋ย
65050635 พิมพ์ญาดา โนนหัวรอ
65050874 ศิริภัสสร สมทรัพย์
65050675 ภัทรพงศ์ ยอดทองหลาง
64050280 อานนท์ ผลพุฒ
65050365 ธนภัทร แคะมะดัน
64050223 วิชญา ปานประดิษฐ์
64050199 รชต ภูภิรมย์
64050050 จุติพร เขมกรรม
64050202 รัชชภูมิ แก้วศรีทา
64050149 ปัณฑ์ตะวัน บัวสังข์ 
64050071 ณัชชา กล้าจริง
64050006 กนิษฐา กระตุดเงิน
64050725 สุภัชชา ทองสุข
64050755 อัญชิสา ชนาธิปกุล
64050538 ประณต คำวงษา
65050989 อภิสิทธิ์ เยียระยงค์
65050459 นัฐ​น​สิน​ จารุ​วรรณ
65050341 ทศพล นพดี
65050659 ไพพริษฐ์ พันธุ
64050101 ธนกฤต เบญจพลกุล
64050232 ศรัญยู บุญค้ำจุน
65050253 ณัชพล หมื่นศรีชัย
65050915 สุกฤตา อินทรแสง
64050207 ลลิตา บุญสุข
64050092 ทยาวัฒน์ ทรงเจริญสุข
64050661 วฤษณิ์ ทับทิม
65050357 ธนกฤต พันธ์เพ็ชร
64050708 สิราลักษณ์ สุพรรณพงษ์
65051014 อัศม์เดช เอี่ยมสอาด
65050323 ณิชาภัทร​ แสงโชติ